{
  "type": "service_account",
  "project_id": "is2-approver",
  "private_key_id": "5b5ed483f4594946c182cdf0c7be3364d7cd6831",
  "private_key": "-----BEGIN PRIVATE KEY-----\nMIIEvQIBADANBgkqhkiG9w0BAQEFAASCBKcwggSjAgEAAoIBAQCSWq5pbQUci2mZ\nzpROijeNyw66F3iGYR8nrOQlP2vJKIKp5+hbGq1OQeIH+2l6yUU0nBznfSThxicF\nxrIYNP2kObrVkol7L+x+oDgaqtWo+UHiMUFQ8AkDVPjhSgXUxkd0QxUsljK2uGAA\nJhKl6hlpOd+9XJbtkZBimsqwdDjPrLm9+tM49doEGtmhR+aFxKeQpCx55LmJaU8g\nT5giTDX4quH00NFagytWuHUzJcP+7T/QeoG77fPwjw5iivAlLx8/zMnZfrd8RXMq\nxaq2nxoCzWnoR5EIfQ5hyDHeNC+REbW52IoMp+Bkyf4HFGRu+It2ZaUKuQFwreTY\nM00qb3qPAgMBAAECggEAME3iu+QiKEIxR/UBSQzgehm3kh8WBhA/JqqvIEYW7q1C\ntw5WR999rNMc5bKKpV6Ry2PtPFA3IJd0oLjsZgXzY0U0j7IOU0zFeyOpcM/KtjsS\njjPgkXSwHNvqSv1SAGCzC8HqVq16LombEeF/DSi/W1YhLRBGtkFxjMH3PRcW+x/Q\n5F9evD0F83ANhpA5U4G0V928d7b+S0unz1Jch+E5h8keVJrnG99O/AA//CLe0nBy\nQakV5NxYA/vKYAtBlPphnV7DpSj38Fp5i3sPL3JVIX8t5a3qZnevJUSMxsMdK4tn\nwo2ZTFuNByU0XJ4Txqj+Wq/90YNe2ExW3BrFXuMJcQKBgQDDu6IUvZbiQU1LCPUH\nqzWb8KBbhT2BMKpEuv7ONEevQQBoKcX9UIBzANL+5uKwx1LvWgo+bhCLeAh1DWjr\nr+E1I3qRL0BH1677q2m4WaNSiiqmqhccZB/VC9aHulLuicmO3jTOKaCAeoB3jbwV\n6LpA0fImkvwIA+YkFbtLGPQs0QKBgQC/ateIW8ksk2KrGr/64Gqzk6JouWOiq46s\n0MnYpNaGLEOS4Yg/pxx7HtqvtiWVF6UNaM5qriifMtM0HU4Sfe6/PaN2pweAi60C\nDVCEl5vRpsb/SMWpCZ/m3PT73TCdh6+xnpuBHTHDednCkzAM/w8laCouYRhnBzV8\njGkE6CeJXwKBgCembuL8tQAIcnvsyJZRHH8Gc7WWfCsbjKJ3rv5eoNbjuA1hyPXT\nxPGHDTcN1oYxGp/aAZE8AqX+Hth3avWzn0+AbGfUxpTHIG9i/fuWTPt/ebxhYGUj\n8z7ZMxAzsnEYAHisks3gqN7d8gBF+gAGMRTIcuFVjTCieZB9xn8kAvLBAoGBAJOP\nMHGsmAul3oUajO4/++FNKQDkETvAVq9AEKnSgJFUJA9hjt/K2jjLUzfrCVPCs3j/\n10gD08rNqmTdRmcY72g7gvyfzDe69PbE/tIH8ZWPpI39MmqZwct9f9l87NIzXCxn\noWbJ86fGEildv8f1A18JyqKQNPiPZRsLPpYKxRevAoGANRxVri9DhcFN7AghRVr9\nC0Vrpt+GZ9Twb4XMMRLifFfp1pW10rNJO+Rjypd6DmpuchGCv92StKo/cn71LPfq\nCGoHsn9JEIKc1Qs8Afy1ltA8aoG7gqq2sadTMZ8rBw6UEjHqfPcBSYCiXEh+0yly\ncsunORxm0Jqp6okSIME2x9c=\n-----END PRIVATE KEY-----\n",
  "client_email": "firebase-adminsdk-vlrfj@is2-approver.iam.gserviceaccount.com",
  "client_id": "106983042384236877599",
  "auth_uri": "https://accounts.google.com/o/oauth2/auth",
  "token_uri": "https://oauth2.googleapis.com/token",
  "auth_provider_x509_cert_url": "https://www.googleapis.com/oauth2/v1/certs",
  "client_x509_cert_url": "https://www.googleapis.com/robot/v1/metadata/x509/firebase-adminsdk-vlrfj%40is2-approver.iam.gserviceaccount.com"
}
