[
  {
    "id": 2,
    "fecha_creado": "27/01/2005",
    "estado": "A",
    "hijos": [],
    "versiones": [
      {
        "id": 3213123213,
        "numero": 1,
        "nombre": "Nombre 2.1",
        "peso": 8,
        "archivo": "/images/example2-1.png",
        "item_id": 2,
        "actual": false,
        "padres": [],
        "valores_personalizados": [
          {
            "version_id": 123123123,
            "valor": "valor dos dot uno",
            "campo": {
              "id": 1,
              "nombre": "Campo 2.1",
              "tipo_item_id": 1,
              "tipo_dato": "String"
            }
          },
          {
            "version_id": 2323423234,
            "valor": "22.11",
            "campo": {
              "id": 2,
              "nombre": "Campo 2.2",
              "tipo_item_id": 1,
              "tipo_dato": "Integer"
            }
          },
          {
            "version_id": 12321312312,
            "valor": "2222-03-03",
            "campo": {
              "id": 3,
              "nombre": "Campo 2.3",
              "tipo_item_id": 1,
              "tipo_dato": "Date"
            }
          }
        ]
      },
      {
        "id": 232312313123,
        "numero": 2,
        "nombre": "Nombre 2.2",
        "peso": 5,
        "archivo": "/images/example2-2.png",
        "item_id": 2,
        "actual": true,
        "padres": [],
        "valores_personalizados": [
          {
            "version_id": 2323123123,
            "valor": "valor dos dot uno prima",
            "campo": {
              "id": 1,
              "nombre": "Campo 2.1",
              "tipo_item_id": 1,
              "tipo_dato": "String"
            }
          },
          {
            "version_id": 213123131,
            "valor": "22.11.2",
            "campo": {
              "id": 2,
              "nombre": "Campo 2.2",
              "tipo_item_id": 1,
              "tipo_dato": "Integer"
            }
          },
          {
            "version_id": 22121231123,
            "valor": "2222-04-03",
            "campo": {
              "id": 3,
              "nombre": "Campo 2.3",
              "tipo_item_id": 1,
              "tipo_dato": "Date"
            }
          }
        ]
      }
    ]
  },
  {
    "id": 3,
    "fecha_creado": "27/01/2010",
    "estado": "A",
    "hijos": [],
    "versiones": [
      {
        "id": 3213123213,
        "numero": 1,
        "nombre": "Nombre 3.1",
        "peso": 8,
        "archivo": "/images/example3-1.png",
        "item_id": 3,
        "actual": false,
        "padres": [],
        "valores_personalizados": []
      },
      {
        "id": 232312313123,
        "numero": 2,
        "nombre": "Nombre 3.2",
        "peso": 5,
        "archivo": "/images/example3-2.png",
        "item_id": 3,
        "actual": true,
        "padres": [],
        "valores_personalizados": [
          {
            "version_id": 1212123123,
            "valor": "valor tres dot uno prima",
            "campo": {
              "id": 1,
              "nombre": "Campo 3.1",
              "tipo_item_id": 1,
              "tipo_dato": "String"
            }
          },
          {
            "version_id": 123123123,
            "valor": "22.11.3",
            "campo": {
              "id": 2,
              "nombre": "Campo 3.2",
              "tipo_item_id": 1,
              "tipo_dato": "Integer"
            }
          },
          {
            "version_id": 2323321213,
            "valor": "2333-04-03",
            "campo": {
              "id": 3,
              "nombre": "Campo 3.3",
              "tipo_item_id": 1,
              "tipo_dato": "Date"
            }
          }
        ]
      }
    ]
  },
  {
    "id": 742,
    "fecha_creado": "27/01/1995",
    "estado": "C",
    "hijos": [
      {
        "padre_id": 742,
        "hijo_id": 4
      },
      {
        "padre_id": 742,
        "hijo_id": 5
      }
    ],
    "versiones": [
      {
        "id": 1,
        "numero": 1,
        "nombre": "Nombre 1",
        "peso": 10,
        "archivo": "/images/example.png",
        "item_id": 742,
        "actual": false,
        "padres": [],
        "valores_personalizados": [
          {
            "version_id": 0,
            "valor": "valor uno",
            "campo": {
              "id": 1,
              "nombre": "Campo 1",
              "tipo_item_id": 1,
              "tipo_dato": "String"
            }
          },
          {
            "version_id": 0,
            "valor": "11.11",
            "campo": {
              "id": 2,
              "nombre": "Campo 2",
              "tipo_item_id": 1,
              "tipo_dato": "Integer"
            }
          },
          {
            "version_id": 0,
            "valor": "2111-01-01",
            "campo": {
              "id": 3,
              "nombre": "Campo 3",
              "tipo_item_id": 1,
              "tipo_dato": "Date"
            }
          }
        ]
      },
      {
        "id": 2,
        "numero": 2,
        "nombre": "Nombre 2",
        "peso": 20,
        "archivo": "/img/pic2r.png",
        "item_id": 742,
        "actual": true,
        "padres": [
          {
            "padre_id": 2,
            "hijo_id": 1
          },
          {
            "padre_id": 3,
            "hijo_id": 1
          }
        ],
        "valores_personalizados": [
          {
            "version_id": 0,
            "valor": "valor dos",
            "campo": {
              "id": 1,
              "nombre": "Campo 1",
              "tipo_item_id": 1,
              "tipo_dato": "String"
            }
          },
          {
            "version_id": 0,
            "valor": "22.22",
            "campo": {
              "id": 2,
              "nombre": "Campo 2",
              "tipo_item_id": 1,
              "tipo_dato": "Integer"
            }
          },
          {
            "version_id": 0,
            "valor": "2222-02-02",
            "campo": {
              "id": 3,
              "nombre": "Campo 3",
              "tipo_item_id": 1,
              "tipo_dato": "Date"
            }
          }
        ]
      }
    ]
  }
]