{
  "id": 742,
  "fecha_creado": "27/01/1995",
  "estado": "C",
  "hijos": [
    {
      "padre_id": 742,
      "hijo_id": 4
    },
    {
      "padre_id": 742,
      "hijo_id": 5
    }
  ],
  "versiones": [
    {
      "id": 1,
      "numero": 1,
      "nombre": "Nombre 1",
      "peso": 10,
      "archivo": "/images/example.png",
      "item_id": 742,
      "actual": false,
      "padres": [],
      "valores_personalizados": [
        {
          "version_id": 0,
          "valor": "valor uno",
          "campo": {
            "id": 1,
            "nombre": "Campo 1",
            "tipo_item_id": 1,
            "tipo_dato": "String"
          }
        },
        {
          "version_id": 0,
          "valor": "11.11",
          "campo": {
            "id": 2,
            "nombre": "Campo 2",
            "tipo_item_id": 1,
            "tipo_dato": "Integer"
          }
        },
        {
          "version_id": 0,
          "valor": "2111-01-01",
          "campo": {
            "id": 3,
            "nombre": "Campo 3",
            "tipo_item_id": 1,
            "tipo_dato": "Date"
          }
        }
      ]
    },
    {
      "id": 2,
      "numero": 2,
      "nombre": "Nombre 2",
      "peso": 20,
      "archivo": "/img/pic2r.png",
      "item_id": 742,
      "actual": true,
      "padres": [
        {
          "padre_id": 2,
          "hijo_id": 1
        },
        {
          "padre_id": 3,
          "hijo_id": 1
        }
      ],
      "valores_personalizados": [
        {
          "version_id": 0,
          "valor": "valor dos",
          "campo": {
            "id": 1,
            "nombre": "Campo 1",
            "tipo_item_id": 1,
            "tipo_dato": "String"
          }
        },
        {
          "version_id": 0,
          "valor": "22.22",
          "campo": {
            "id": 2,
            "nombre": "Campo 2",
            "tipo_item_id": 1,
            "tipo_dato": "Integer"
          }
        },
        {
          "version_id": 0,
          "valor": "2111-02-02",
          "campo": {
            "id": 3,
            "nombre": "Campo 3",
            "tipo_item_id": 1,
            "tipo_dato": "Date"
          }
        }
      ]
    }
  ]
}