[
  {
    "id": 2,
    "fecha_creado": "27/01/2005",
    "estado": "A",
    "hijos": [],
    "versiones": [
      {
        "id": 3213123213,
        "numero": 1,
        "nombre": "Nombre 2.1",
        "peso": 8,
        "archivo": "/images/example2-1.png",
        "item_id": 2,
        "actual": false,
        "padres": [],
        "valores_personalizados": [
          {
            "version_id": 123123123,
            "valor": "valor dos dot uno",
            "campo": {
              "id": 1,
              "nombre": "Campo 2.1",
              "tipo_item_id": 1,
              "tipo_dato": "String"
            }
          },
          {
            "version_id": 2323423234,
            "valor": "22.11",
            "campo": {
              "id": 2,
              "nombre": "Campo 2.2",
              "tipo_item_id": 1,
              "tipo_dato": "Integer"
            }
          },
          {
            "version_id": 12321312312,
            "valor": "2222-03-03",
            "campo": {
              "id": 3,
              "nombre": "Campo 2.3",
              "tipo_item_id": 1,
              "tipo_dato": "Date"
            }
          }
        ]
      },
      {
        "id": 232312313123,
        "numero": 2,
        "nombre": "Nombre 2.2",
        "peso": 5,
        "archivo": "/images/example2-2.png",
        "item_id": 2,
        "actual": true,
        "padres": [],
        "valores_personalizados": [
          {
            "version_id": 2323123123,
            "valor": "valor dos dot uno prima",
            "campo": {
              "id": 1,
              "nombre": "Campo 2.1",
              "tipo_item_id": 1,
              "tipo_dato": "String"
            }
          },
          {
            "version_id": 213123131,
            "valor": "22.11.2",
            "campo": {
              "id": 2,
              "nombre": "Campo 2.2",
              "tipo_item_id": 1,
              "tipo_dato": "Integer"
            }
          },
          {
            "version_id": 22121231123,
            "valor": "2222-04-03",
            "campo": {
              "id": 3,
              "nombre": "Campo 2.3",
              "tipo_item_id": 1,
              "tipo_dato": "Date"
            }
          }
        ]
      }
    ]
  },
  {
    "id": 3,
    "fecha_creado": "27/01/2010",
    "estado": "A",
    "hijos": [],
    "versiones": [
      {
        "id": 3213123213,
        "numero": 1,
        "nombre": "Nombre 3.1",
        "peso": 8,
        "archivo": "/images/example3-1.png",
        "item_id": 3,
        "actual": false,
        "padres": [],
        "valores_personalizados": []
      },
      {
        "id": 232312313123,
        "numero": 2,
        "nombre": "Nombre 3.2",
        "peso": 5,
        "archivo": "/images/example3-2.png",
        "item_id": 3,
        "actual": true,
        "padres": [],
        "valores_personalizados": [
          {
            "version_id": 1212123123,
            "valor": "valor tres dot uno prima",
            "campo": {
              "id": 1,
              "nombre": "Campo 3.1",
              "tipo_item_id": 1,
              "tipo_dato": "String"
            }
          },
          {
            "version_id": 123123123,
            "valor": "22.11.3",
            "campo": {
              "id": 2,
              "nombre": "Campo 3.2",
              "tipo_item_id": 1,
              "tipo_dato": "Integer"
            }
          },
          {
            "version_id": 2323321213,
            "valor": "2333-04-03",
            "campo": {
              "id": 3,
              "nombre": "Campo 3.3",
              "tipo_item_id": 1,
              "tipo_dato": "Date"
            }
          }
        ]
      }
    ]
  }
]