[
  {
    "model": "api.usuario",
    "pk": 1,
    "fields": {
      "user": 2,
      "estado": "A",
      "firebase_uid": "MaTIAjUqtrfDNLAfMXss372opk43"
    }
  },
  {
    "model": "api.usuario",
    "pk": 2,
    "fields": {
      "user": 3,
      "estado": "A",
      "firebase_uid": "VlihkFqMhSQFORNhNljU4m9bzcx2"
    }
  },
  {
    "model": "api.usuario",
    "pk": 3,
    "fields": {
      "user": 4,
      "estado": "A",
      "firebase_uid": "Rgk6hPwrAmVTy67xFJ06QyVMqnG2"
    }
  },
  {
    "model": "api.usuario",
    "pk": 4,
    "fields": {
      "user": 5,
      "estado": "A",
      "firebase_uid": "vdkwmDEdfGVbKMF5AuU3MpUXKv62"
    }
  },
  {
    "model": "api.usuario",
    "pk": 5,
    "fields": {
      "user": 1,
      "estado": "A",
      "firebase_uid": "wsRKZ9BSAFaTBQIEW8qAPriucDS2"
    }
  }
]
